(:key1 89ll:key2 0b1000101:key3 "iddqd":)
(:key1 123LL:key2 0B1100001:key3 "iddqd":)
(:key1 2314:key2 0b1000101:key3 "iddqd":)
(:key1 8239LL:key2 0b100101:key3 "iddqd":)
(:key1 89ll:key2 0B2340101:key3 "iddqd":)
