AREA EVEN
AREA ODD
AREA MEAN
AREA 3
MAX AREA
MIN AREA
AREA 4
COUNT EVEN
COUNT ODD
ECHO 3 (1;1) (1;3) (3;3)
ECHO 4 (0;0) (2;0) (2;2) (0;2)
ECHO 5 (-1;-1) (-2;1) (3;0) (3;-5) (0;-6)
ECHO 3 (0;1) (1;1) (0;0)
ECHO 3 (3;1) (1;1) (3;3)
ECHO 5 (0;0) (1;0) (1;1) (0;1) (2;1)
ECHO 4 (1;1) (0;2) (1;3) (2;2)
RIGHTSHAPES