3 (0,0);(1,0);(0,1)
4 (0,0);(2,0);(2,2);(0,2)
5 (0,0);(5,0);(5,5);(2,5);(0,3)
3 (3;3) (1;1) (1;3)
3 (0;1) (1;1) (0;0)
3 (3;1) (1;1) (3;3)
4 (0;0) (1;0) (1;1) (0;1)
5 (-1;-1) (-2;1) (3;0) (3;-5) (0;-6)
3 (0;0) (1;1) (0;1)
4 (1;1) (0;2) (1;3) (2;2)