3 (0,0);(1,0);(0,1)
4 (0,0);(2,0);(2,2);(0,2)
5 (0,0);(5,0);(5,5);(2,5);(0,3)
3 (3,3);(1,1);(1,3)
3 (3,3);(1,1);(1,3)
4 (0,0);(1,0);(1,1);(0,1)
3 (3,3);(1,1);(1,3)
3 (3,3);(1,1);(1,3)
3 (3,3);(1,1);(1,3)
4 (0,0);(1,0);(1,1);(0,1) 
4 (0,0);(1,0);(1,1);(0,1) 
3 (3,3);(1,1);(1,3)
4 (0,0);(1,0);(1,1);(0,1)
4 (5,5);(6,5);(6,6);(5,6)